{
	"aururl": "https://aur.archlinux.org",
	"buildDir": "/home/chigozirim/.cache/yay",
	"absdir": "/home/chigozirim/.cache/yay/abs",
	"editor": "/usr/bin/subl3",
	"editorflags": "--new-window --wait",
	"makepkgbin": "makepkg",
	"makepkgconf": "",
	"pacmanconf": "/etc/pacman.conf",
	"redownload": "no",
	"rebuild": "no",
	"answerclean": "",
	"answerdiff": "",
	"answeredit": "",
	"answerupgrade": "",
	"gitbin": "git",
	"gpgbin": "gpg",
	"gpgflags": "",
	"mflags": "",
	"sortby": "votes",
	"searchby": "name-desc",
	"gitflags": "",
	"removemake": "yes",
	"sudobin": "sudo",
	"sudoflags": "",
	"requestsplitn": 150,
	"sortmode": 1,
	"completionrefreshtime": 7,
	"sudoloop": true,
	"timeupdate": false,
	"devel": true,
	"cleanAfter": false,
	"provides": true,
	"pgpfetch": true,
	"upgrademenu": true,
	"cleanmenu": true,
	"diffmenu": false,
	"editmenu": true,
	"combinedupgrade": true,
	"useask": false,
	"batchinstall": true
}
